// Jest Snapshot v1, https://goo.gl/fbAQLP

exports[`ManageHealth should render correctly 1`] = `
<div
  className="main-content-container container-fluid px-4"
>
  <div
    className="page-header row no-gutters py-4 mb-3 border-bottom"
  >
    <div
      className="col-12 col-sm-4 text-center text-sm-left mb-0"
    >
      <span
        className="text-uppercase page-subtitle"
      >
        Health
      </span>
      <h3
        className="page-title"
      >
        Manage Health Projects
      </h3>
    </div>
  </div>
  <div
    className="d-flex mt-5 search"
  >
    <PatientSearch
      onClose={[Function]}
      onOpen={[Function]}
    />
  </div>
  <div
    className="d-flex flex-column healthProjects"
  >
    <HealthProject
      key="Health Project 1"
      project={
        Object {
          "description": "Description of Project 1",
          "name": "Health Project 1",
        }
      }
      zIndex={3}
    />
    <HealthProject
      key="Health Project 2"
      project={
        Object {
          "description": "Description of Project 2",
          "name": "Health Project 2",
        }
      }
      zIndex={3}
    />
  </div>
  <div
    className="d-flex flex-column align-items-end"
  >
    <div
      className="btn-circle btn-primary plus"
      type="button"
    >
      +
    </div>
  </div>
</div>
`;
